[
        'HLT_AK8DiPFJet250_250_MassSD30_v2',
        'HLT_AK8DiPFJet250_250_MassSD50_v2',
        'HLT_AK8DiPFJet260_260_MassSD30_v2',
        'HLT_AK8DiPFJet270_270_MassSD30_v2',
        'HLT_AK8PFJet140_v17',
        'HLT_AK8PFJet200_v17',
        'HLT_AK8PFJet230_SoftDropMass40_PFAK8ParticleNetBB0p35_v3',
        'HLT_AK8PFJet230_SoftDropMass40_PFAK8ParticleNetTauTau0p30_v3',
        'HLT_AK8PFJet230_SoftDropMass40_v3',
        'HLT_AK8PFJet250_SoftDropMass40_PFAK8ParticleNetBB0p35_v3',
        'HLT_AK8PFJet250_SoftDropMass40_PFAK8ParticleNetTauTau0p30_v3',
        'HLT_AK8PFJet260_v18',
        'HLT_AK8PFJet275_SoftDropMass40_PFAK8ParticleNetBB0p35_v3',
        'HLT_AK8PFJet275_SoftDropMass40_PFAK8ParticleNetTauTau0p30_v3',
        'HLT_AK8PFJet320_v18',
        'HLT_AK8PFJet400_MassSD30_v2',
        'HLT_AK8PFJet400_SoftDropMass40_v3',
        'HLT_AK8PFJet400_v18',
        'HLT_AK8PFJet40_v18',
        'HLT_AK8PFJet420_MassSD30_v2',
        'HLT_AK8PFJet425_SoftDropMass40_v3',
        'HLT_AK8PFJet450_MassSD30_v2',
        'HLT_AK8PFJet450_SoftDropMass40_v3',
        'HLT_AK8PFJet450_v18',
        'HLT_AK8PFJet500_v18',
        'HLT_AK8PFJet550_v13',
        'HLT_AK8PFJet60_v17',
        'HLT_AK8PFJet80_v17',
        'HLT_AK8PFJetFwd140_v16',
        'HLT_AK8PFJetFwd15_v5',
        'HLT_AK8PFJetFwd200_v16',
        'HLT_AK8PFJetFwd25_v5',
        'HLT_AK8PFJetFwd260_v17',
        'HLT_AK8PFJetFwd320_v17',
        'HLT_AK8PFJetFwd400_v17',
        'HLT_AK8PFJetFwd40_v17',
        'HLT_AK8PFJetFwd450_v17',
        'HLT_AK8PFJetFwd500_v17',
        'HLT_AK8PFJetFwd60_v16',
        'HLT_AK8PFJetFwd80_v16',
        'HLT_CaloJet500_NoJetID_v14',
        'HLT_CaloJet550_NoJetID_v9',
        'HLT_CaloMET350_NotCleaned_v6',
        'HLT_CaloMET90_NotCleaned_v6',
        'HLT_CaloMHT90_v6',
        'HLT_DiJet110_35_Mjj650_PFMET110_v11',
        'HLT_DiJet110_35_Mjj650_PFMET120_v11',
        'HLT_DiJet110_35_Mjj650_PFMET130_v11',
        'HLT_DiPFJetAve100_HFJEC_v18',
        'HLT_DiPFJetAve140_v15',
        'HLT_DiPFJetAve160_HFJEC_v18',
        'HLT_DiPFJetAve200_v15',
        'HLT_DiPFJetAve220_HFJEC_v18',
        'HLT_DiPFJetAve260_HFJEC_v1',
        'HLT_DiPFJetAve260_v16',
        'HLT_DiPFJetAve300_HFJEC_v18',
        'HLT_DiPFJetAve320_v16',
        'HLT_DiPFJetAve400_v16',
        'HLT_DiPFJetAve40_v16',
        'HLT_DiPFJetAve500_v16',
        'HLT_DiPFJetAve60_HFJEC_v17',
        'HLT_DiPFJetAve60_v16',
        'HLT_DiPFJetAve80_HFJEC_v18',
        'HLT_DiPFJetAve80_v15',
        'HLT_DoublePFJets100_PFBTagDeepCSV_p71_v3',
        'HLT_DoublePFJets100_PFBTagDeepJet_p71_v3',
        'HLT_DoublePFJets116MaxDeta1p6_DoublePFBTagDeepCSV_p71_v3',
        'HLT_DoublePFJets116MaxDeta1p6_DoublePFBTagDeepJet_p71_v3',
        'HLT_DoublePFJets128MaxDeta1p6_DoublePFBTagDeepCSV_p71_v3',
        'HLT_DoublePFJets128MaxDeta1p6_DoublePFBTagDeepJet_p71_v3',
        'HLT_DoublePFJets200_PFBTagDeepCSV_p71_v3',
        'HLT_DoublePFJets200_PFBTagDeepJet_p71_v3',
        'HLT_DoublePFJets350_PFBTagDeepCSV_p71_v3',
        'HLT_DoublePFJets350_PFBTagDeepJet_p71_v4',
        'HLT_DoublePFJets40_PFBTagDeepCSV_p71_v3',
        'HLT_DoublePFJets40_PFBTagDeepJet_p71_v3',
        'HLT_L1ETMHadSeeds_v4',
        'HLT_MET105_IsoTrk50_v11',
        'HLT_MET120_IsoTrk50_v11',
        'HLT_Mu12_DoublePFJets100_PFBTagDeepCSV_p71_v3',
        'HLT_Mu12_DoublePFJets100_PFBTagDeepJet_p71_v3',
        'HLT_Mu12_DoublePFJets200_PFBTagDeepCSV_p71_v3',
        'HLT_Mu12_DoublePFJets200_PFBTagDeepJet_p71_v3',
        'HLT_Mu12_DoublePFJets350_PFBTagDeepCSV_p71_v3',
        'HLT_Mu12_DoublePFJets350_PFBTagDeepJet_p71_v3',
        'HLT_Mu12_DoublePFJets40MaxDeta1p6_DoublePFBTagDeepCSV_p71_v3',
        'HLT_Mu12_DoublePFJets40MaxDeta1p6_DoublePFBTagDeepJet_p71_v3',
        'HLT_Mu12_DoublePFJets40_PFBTagDeepCSV_p71_v3',
        'HLT_Mu12_DoublePFJets40_PFBTagDeepJet_p71_v3',
        'HLT_Mu12_DoublePFJets54MaxDeta1p6_DoublePFBTagDeepCSV_p71_v3',
        'HLT_Mu12_DoublePFJets54MaxDeta1p6_DoublePFBTagDeepJet_p71_v3',
        'HLT_Mu12eta2p3_PFJet40_v3',
        'HLT_Mu12eta2p3_v3',
        'HLT_PFHT1050_v20',
        'HLT_PFHT180_v19',
        'HLT_PFHT250_v19',
        'HLT_PFHT330PT30_QuadPFJet_75_60_45_40_TriplePFBTagDeepCSV_4p5_v5',
        'HLT_PFHT330PT30_QuadPFJet_75_60_45_40_TriplePFBTagDeepJet_4p5_v3',
        'HLT_PFHT330PT30_QuadPFJet_75_60_45_40_v11',
        'HLT_PFHT350_v21',
        'HLT_PFHT370_v19',
        'HLT_PFHT400_FivePFJet_100_100_60_30_30_DoublePFBTagDeepCSV_4p5_v10',
        'HLT_PFHT400_FivePFJet_100_100_60_30_30_DoublePFBTagDeepJet_4p5_v3',
        'HLT_PFHT400_FivePFJet_100_100_60_30_30_v10',
        'HLT_PFHT400_FivePFJet_120_120_60_30_30_DoublePFBTagDeepCSV_4p5_v10',
        'HLT_PFHT400_FivePFJet_120_120_60_30_30_DoublePFBTagDeepJet_4p5_v3',
        'HLT_PFHT400_SixPFJet32_DoublePFBTagDeepCSV_2p94_v10',
        'HLT_PFHT400_SixPFJet32_DoublePFBTagDeepJet_2p94_v3',
        'HLT_PFHT400_SixPFJet32_v10',
        'HLT_PFHT430_v19',
        'HLT_PFHT450_SixPFJet36_PFBTagDeepCSV_1p59_v9',
        'HLT_PFHT450_SixPFJet36_PFBTagDeepJet_1p59_v3',
        'HLT_PFHT450_SixPFJet36_v9',
        'HLT_PFHT500_PFMET100_PFMHT100_IDTight_v14',
        'HLT_PFHT500_PFMET110_PFMHT110_IDTight_v14',
        'HLT_PFHT510_v19',
        'HLT_PFHT590_v19',
        'HLT_PFHT680_v19',
        'HLT_PFHT700_PFMET85_PFMHT85_IDTight_v14',
        'HLT_PFHT780_v19',
        'HLT_PFHT800_PFMET75_PFMHT75_IDTight_v14',
        'HLT_PFHT890_v19',
        'HLT_PFJet110_v2',
        'HLT_PFJet140_v21',
        'HLT_PFJet200_v21',
        'HLT_PFJet260_v22',
        'HLT_PFJet320_v22',
        'HLT_PFJet400_v22',
        'HLT_PFJet40_v23',
        'HLT_PFJet450_v23',
        'HLT_PFJet500_v23',
        'HLT_PFJet550_v13',
        'HLT_PFJet60_v23',
        'HLT_PFJet80_v22',
        'HLT_PFJetFwd140_v20',
        'HLT_PFJetFwd15_v5',
        'HLT_PFJetFwd200_v20',
        'HLT_PFJetFwd25_v5',
        'HLT_PFJetFwd260_v21',
        'HLT_PFJetFwd320_v21',
        'HLT_PFJetFwd400_v21',
        'HLT_PFJetFwd40_v21',
        'HLT_PFJetFwd450_v21',
        'HLT_PFJetFwd500_v21',
        'HLT_PFJetFwd60_v21',
        'HLT_PFJetFwd80_v20',
        'HLT_PFMET100_PFMHT100_IDTight_PFHT60_v11',
        'HLT_PFMET105_IsoTrk50_v3',
        'HLT_PFMET110_PFJet100_v3',
        'HLT_PFMET110_PFMHT110_IDTight_v22',
        'HLT_PFMET120_PFMHT120_IDTight_PFHT60_v11',
        'HLT_PFMET120_PFMHT120_IDTight_v22',
        'HLT_PFMET130_PFMHT130_IDTight_v22',
        'HLT_PFMET140_PFMHT140_IDTight_v22',
        'HLT_PFMET200_BeamHaloCleaned_v11',
        'HLT_PFMET200_NotCleaned_v11',
        'HLT_PFMET250_NotCleaned_v11',
        'HLT_PFMET300_NotCleaned_v11',
        'HLT_PFMETNoMu100_PFMHTNoMu100_IDTight_PFHT60_v11',
        'HLT_PFMETNoMu110_PFMHTNoMu110_IDTight_FilterHF_v2',
        'HLT_PFMETNoMu110_PFMHTNoMu110_IDTight_v22',
        'HLT_PFMETNoMu120_PFMHTNoMu120_IDTight_FilterHF_v2',
        'HLT_PFMETNoMu120_PFMHTNoMu120_IDTight_PFHT60_v11',
        'HLT_PFMETNoMu120_PFMHTNoMu120_IDTight_v22',
        'HLT_PFMETNoMu130_PFMHTNoMu130_IDTight_FilterHF_v2',
        'HLT_PFMETNoMu130_PFMHTNoMu130_IDTight_v21',
        'HLT_PFMETNoMu140_PFMHTNoMu140_IDTight_FilterHF_v2',
        'HLT_PFMETNoMu140_PFMHTNoMu140_IDTight_v21',
        'HLT_PFMETTypeOne100_PFMHT100_IDTight_PFHT60_v11',
        'HLT_PFMETTypeOne110_PFMHT110_IDTight_v14',
        'HLT_PFMETTypeOne120_PFMHT120_IDTight_PFHT60_v11',
        'HLT_PFMETTypeOne120_PFMHT120_IDTight_v14',
        'HLT_PFMETTypeOne130_PFMHT130_IDTight_v14',
        'HLT_PFMETTypeOne140_PFMHT140_IDTight_v13',
        'HLT_PFMETTypeOne200_BeamHaloCleaned_v11',
        'HLT_QuadPFJet103_88_75_15_DoublePFBTagDeepCSV_1p3_7p7_VBF1_v10',
        'HLT_QuadPFJet103_88_75_15_DoublePFBTagDeepJet_1p3_7p7_VBF1_v3',
        'HLT_QuadPFJet103_88_75_15_PFBTagDeepCSV_1p3_VBF2_v10',
        'HLT_QuadPFJet103_88_75_15_PFBTagDeepJet_1p3_VBF2_v3',
        'HLT_QuadPFJet103_88_75_15_v7',
        'HLT_QuadPFJet105_88_76_15_DoublePFBTagDeepCSV_1p3_7p7_VBF1_v10',
        'HLT_QuadPFJet105_88_76_15_DoublePFBTagDeepJet_1p3_7p7_VBF1_v3',
        'HLT_QuadPFJet105_88_76_15_PFBTagDeepCSV_1p3_VBF2_v10',
        'HLT_QuadPFJet105_88_76_15_PFBTagDeepJet_1p3_VBF2_v3',
        'HLT_QuadPFJet105_88_76_15_v7',
        'HLT_QuadPFJet111_90_80_15_DoublePFBTagDeepCSV_1p3_7p7_VBF1_v10',
        'HLT_QuadPFJet111_90_80_15_DoublePFBTagDeepJet_1p3_7p7_VBF1_v3',
        'HLT_QuadPFJet111_90_80_15_PFBTagDeepCSV_1p3_VBF2_v10',
        'HLT_QuadPFJet111_90_80_15_PFBTagDeepJet_1p3_VBF2_v3',
        'HLT_QuadPFJet111_90_80_15_v7',
        'HLT_QuadPFJet70_50_40_30_PFBTagParticleNet_2BTagSum0p65_v3',
        'HLT_QuadPFJet70_50_40_30_v3',
        'HLT_QuadPFJet70_50_40_35_PFBTagParticleNet_2BTagSum0p65_v3',
        'HLT_QuadPFJet70_50_45_35_PFBTagParticleNet_2BTagSum0p65_v3',
        'HLT_SingleJet30_Mu12_SinglePFJet40_v13',
        'HLT_TripleJet110_35_35_Mjj650_PFMET110_v11',
        'HLT_TripleJet110_35_35_Mjj650_PFMET120_v11',
        'HLT_TripleJet110_35_35_Mjj650_PFMET130_v11'
]